^E:\CLIONPROJECTS\VS\HELLOWORLD\DEBUG\HELLOWORLD.OBJ
E:\CLIONPROJECTS\VS\HELLOWORLD\DEBUG\HELLOWORLD.EXE
E:\CLIONPROJECTS\VS\HELLOWORLD\DEBUG\HELLOWORLD.ILK
E:\CLIONPROJECTS\VS\HELLOWORLD\DEBUG\HELLOWORLD.PDB
